{
  "Description": "Earnbet Private s3",
  "Parameters": {
    "RegionName": {
      "Type": "String",
      "Default": "us-west-2",
      "Description": "the cluster name"
    },
    "EcsClusterName": {
      "Type": "String",
      "Default": "main",
      "Description": "the cluster name"
    }
  },
  "Resources": {
    "PublicRouteTable": {
      "Type": "AWS::EC2::RouteTable",
      "Properties": { "VpcId": { "Ref": "VPC" } }
    },
    "PublicSubnet1RouteTableAssociation": {
      "Type": "AWS::EC2::SubnetRouteTableAssociation",
      "Properties": {
        "RouteTableId": { "Ref": "PublicRouteTable" },
        "SubnetId": { "Ref": "Subnet1" }
      }
    },
    "DefaultPublicRoute": {
      "Type": "AWS::EC2::Route",
      "DependsOn": "InternetGatewayAttachment",
      "Properties": {
        "RouteTableId": { "Ref": "PublicRouteTable" },
        "DestinationCidrBlock": "0.0.0.0/0",
        "GatewayId": { "Ref": "InternetGateway" }
      }
    },
    "InternetGateway": {
      "Type": "AWS::EC2::InternetGateway"
    },
    "InternetGatewayAttachment": {
      "Type": "AWS::EC2::VPCGatewayAttachment",
      "Properties": {
        "InternetGatewayId": { "Ref": "InternetGateway" },
        "VpcId": { "Ref": "VPC" }
      }
    },
    "RootRole": {
      "Type": "AWS::IAM::Role",
      "Properties": {
        "AssumeRolePolicyDocument": {
          "Version": "2012-10-17",
          "Statement": [
            {
              "Effect": "Allow",
              "Principal": {
                "Service": [
                  "ecs-tasks.amazonaws.com",
                  "ec2.amazonaws.com",
                  "codebuild.amazonaws.com",
                  "codedeploy.amazonaws.com",
                  "codecommit.amazonaws.com",
                  "events.amazonaws.com",
                  "codepipeline.amazonaws.com",
                  "s3.amazonaws.com"
                ]
              },
              "Action": "sts:AssumeRole"
            }
          ]
        },
        "Policies": [
          {
            "PolicyName": "root",
            "PolicyDocument": {
              "Version": "2012-10-17",
              "Statement": [
                {
                  "Effect": "Allow",
                  "Action": [
                    "ecr:*",
                    "logs:*",
                    "application-autoscaling:*",
                    "cloudformation:*",
                    "ec2:*",
                    "ecs:*",
                    "elasticloadbalancing:*",
                    "iam:*",
                    "logs:*",
                    "route53:*",
                    "servicediscovery:*",
                    "autoscaling:*",
                    "codebuild:*",
                    "codedeploy:*",
                    "cloudformation:*",
                    "codecommit:*",
                    "codepipeline:*",
                    "s3:*"
                  ],
                  "Resource": "*"
                }
              ]
            }
          }
        ]
      }
    },
    "VPC": {
      "Type": "AWS::EC2::VPC",
      "Properties": {
        "CidrBlock": "10.0.0.0/24",
        "EnableDnsSupport": "true",
        "EnableDnsHostnames": "true"
      }
    },
    "Subnet1": {
      "Type": "AWS::EC2::Subnet",
      "Properties": {
        "VpcId": { "Ref": "VPC" },
        "CidrBlock": "10.0.0.0/25",
        "AvailabilityZone": {
          "Fn::Join": [
            "",
            [
              {
                "Ref": "RegionName"
              },
              "c"
            ]
          ]
        },
        "MapPublicIpOnLaunch": true
      }
    },
    "InstanceSecurityGroup": {
      "Type": "AWS::EC2::SecurityGroup",
      "Properties": {
        "GroupDescription": "Allow http to client host",
        "VpcId": { "Ref": "VPC" },
        "SecurityGroupIngress": [
          {
            "IpProtocol": -1,
            "FromPort": -1,
            "ToPort": -1,
            "CidrIp": "0.0.0.0/0"
          }
        ],
        "SecurityGroupEgress": [
          {
            "IpProtocol": -1,
            "FromPort": -1,
            "ToPort": -1,
            "CidrIp": "0.0.0.0/0"
          }
        ]
      }
    },
    "CodeCommitRepo": {
      "Type": "AWS::CodeCommit::Repository",
      "Properties": {
        "RepositoryName": "CodeCommitRepo",
        "RepositoryDescription": "This is the repository for backend"
      }
    },
    "S3BucketPolicy": {
      "Type": "AWS::S3::BucketPolicy",
      "Properties": {
        "Bucket": {
          "Ref": "S3Bucket"
        },
        "PolicyDocument": {
          "Statement": [
            {
              "Action": ["s3:*"],
              "Effect": "Allow",
              "Resource": {
                "Fn::Join": [
                  "",
                  [
                    "arn:aws:s3:::",
                    {
                      "Ref": "S3Bucket"
                    },
                    "/*"
                  ]
                ]
              },
              "Principal": "*"
            }
          ]
        }
      }
    },
    "S3Bucket": {
      "DeletionPolicy": "Delete",
      "Type": "AWS::S3::Bucket",
      "Properties": {
        "BucketName": "earnbet-pipeline-artifacts-bucket",
        "CorsConfiguration": {
          "CorsRules": [
            {
              "AllowedHeaders": ["*"],
              "AllowedMethods": ["GET", "PUT", "HEAD", "POST"],
              "AllowedOrigins": ["*"]
            }
          ]
        }
      }
    },
    "PrivateS3BucketPolicy": {
      "Type": "AWS::S3::BucketPolicy",
      "Properties": {
        "Bucket": {
          "Ref": "PrivateS3Bucket"
        },
        "PolicyDocument": {
          "Statement": [
            {
              "Action": ["s3:*"],
              "Effect": "Allow",
              "Resource": {
                "Fn::Join": [
                  "",
                  [
                    "arn:aws:s3:::",
                    {
                      "Ref": "PrivateS3Bucket"
                    },
                    "/*"
                  ]
                ]
              },
              "Principal": "*"
            }
          ]
        }
      }
    },
    "ECSCluster": {
      "Type": "AWS::ECS::Cluster",
      "DeletionPolicy": "Delete",
      "Properties": {
        "ClusterName": { "Ref": "EcsClusterName" },
        "CapacityProviders": ["FARGATE"],
        "ClusterSettings": [
          {
            "Name": "containerInsights",
            "Value": "enabled"
          }
        ],
        "DefaultCapacityProviderStrategy": [
          {
            "CapacityProvider": "FARGATE",
            "Weight": 1
          }
        ]
      }
    },
    "PrivateS3Bucket": {
      "DeletionPolicy": "Delete",
      "Type": "AWS::S3::Bucket",
      "Properties": {
        "BucketName": "earnbet-deployment-secret-files",
        "CorsConfiguration": {
          "CorsRules": [
            {
              "AllowedHeaders": ["*"],
              "AllowedMethods": ["GET", "PUT", "HEAD", "POST"],
              "AllowedOrigins": ["*"]
            }
          ]
        },
        "PublicAccessBlockConfiguration": {
          "BlockPublicAcls": true,
          "BlockPublicPolicy": true,
          "IgnorePublicAcls": true,
          "RestrictPublicBuckets": true
        }
      }
    },
    "BuildProject": {
      "Type": "AWS::CodeBuild::Project",
      "Properties": {
        "LogsConfig": {
          "CloudWatchLogs": {
            "Status": "ENABLED"
          }
        },
        "Artifacts": {
          "Type": "CODEPIPELINE"
        },
        "Source": {
          "Type": "CODEPIPELINE",
          "BuildSpec": "buildspec.yml"
        },
        "Environment": {
          "PrivilegedMode": "true",
          "ComputeType": "BUILD_GENERAL1_SMALL",
          "Image": "aws/codebuild/amazonlinux2-x86_64-standard:4.0",
          "Type": "LINUX_CONTAINER",
          "EnvironmentVariables": [
            {
              "Name": "REPOSITORY_URI",
              "Value": {
                "Fn::Join": [
                  "",
                  [
                    {
                      "Fn::GetAtt": ["BackendImagesRepository", "RepositoryUri"]
                    }
                  ]
                ]
              }
            },
            {
              "Name": "AWS_REGION",
              "Value": { "Ref": "RegionName" }
            },
            {
              "Name": "AWS_S3_BUCKET",
              "Value": { "Ref": "S3Bucket" }
            }
          ]
        },
        "Name": "BuildAdminFrontend",
        "ServiceRole": { "Fn::GetAtt": ["RootRole", "Arn"] }
      }
    },
    "BackendImagesRepository": {
      "DeletionPolicy": "Delete",
      "Type": "AWS::ECR::Repository",
      "Properties": {
        "RepositoryName": "backend-repository",
        "RepositoryPolicyText": {
          "Version": "2012-10-17",
          "Statement": [
            {
              "Sid": "AllowPushPull",
              "Effect": "Allow",
              "Principal": "*",
              "Action": ["ecr:*"]
            }
          ]
        }
      }
    },
    "BackendTask": {
      "Type": "AWS::ECS::TaskDefinition",
      "Properties": {
        "TaskRoleArn": { "Ref": "RootRole" },
        "ExecutionRoleArn": { "Ref": "RootRole" },
        "Cpu": "512",
        "Memory": "1024",
        "NetworkMode": "awsvpc",
        "RequiresCompatibilities": ["FARGATE"],
        "ContainerDefinitions": [
          {
            "LogConfiguration": {
              "LogDriver": "awslogs",
              "Options": {
                "awslogs-group": "backend-container",
                "awslogs-region": { "Ref": "RegionName" },
                "awslogs-create-group": "true",
                "awslogs-stream-prefix": "backend"
              }
            },
            "Image": {
              "Fn::Join": [
                "",
                [
                  {
                    "Fn::GetAtt": ["BackendImagesRepository", "RepositoryUri"]
                  },
                  ":latest"
                ]
              ]
            },
            "EnvironmentFiles": [
              {
                "Type": "s3",
                "Value": "arn:aws:s3:::earnbet-deployment-secret-files/.env"
              }
            ],
            "Name": "backend",
            "Memory": "1024",
            "Cpu": "512"
          }
        ]
      }
    },
    "BackendService": {
      "Type": "AWS::ECS::Service",
      "Properties": {
        "NetworkConfiguration": {
          "AwsvpcConfiguration": {
            "AssignPublicIp": "ENABLED",
            "Subnets": [{ "Ref": "Subnet1" }],
            "SecurityGroups": [{ "Ref": "InstanceSecurityGroup" }]
          }
        },
        "LaunchType": "FARGATE",
        "Cluster": { "Ref": "EcsClusterName" },
        "ServiceName": "backend",
        "DesiredCount": 1,
        "TaskDefinition": { "Ref": "BackendTask" }
      }
    },
    "AppPipeline": {
      "Type": "AWS::CodePipeline::Pipeline",
      "Properties": {
        "RoleArn": { "Fn::GetAtt": ["RootRole", "Arn"] },
        "Stages": [
          {
            "Name": "Source",
            "Actions": [
              {
                "Name": "source",
                "Configuration": {
                  "RepositoryName": {
                    "Fn::GetAtt": ["CodeCommitRepo", "Name"]
                  },
                  "BranchName": "main",
                  "PollForSourceChanges": "true"
                },
                "RunOrder": 1,
                "ActionTypeId": {
                  "Version": "1",
                  "Provider": "CodeCommit",
                  "Category": "Source",
                  "Owner": "AWS"
                },
                "OutputArtifacts": [{ "Name": "App" }]
              }
            ]
          },
          {
            "Name": "Build",
            "Actions": [
              {
                "Name": "build",
                "Configuration": {
                  "ProjectName": {
                    "Ref": "BuildProject"
                  }
                },
                "RunOrder": 1,
                "ActionTypeId": {
                  "Version": "1",
                  "Provider": "CodeBuild",
                  "Category": "Build",
                  "Owner": "AWS"
                },
                "InputArtifacts": [{ "Name": "App" }],
                "OutputArtifacts": [{ "Name": "BuildOutput" }]
              }
            ]
          },
          {
            "Name": "DeployECS",
            "Actions": [
              {
                "ActionTypeId": {
                  "Category": "Deploy",
                  "Owner": "AWS",
                  "Provider": "ECS",
                  "Version": "1"
                },
                "RunOrder": 2,
                "Name": "deployECS",
                "Configuration": {
                  "ClusterName": { "Ref": "EcsClusterName" },
                  "ServiceName": "backend"
                },
                "InputArtifacts": [{ "Name": "BuildOutput" }]
              }
            ]
          }
        ],
        "ArtifactStore": {
          "Type": "S3",
          "Location": { "Ref": "S3Bucket" }
        }
      }
    }
  }
}
